{
  "tasks": [
    {
      "text": "Work",
      "day": "September 30th at 8:00am",
      "reminder": true,
      "id": 1
    },
    {
      "text": "Movie",
      "day": "September 23rd, 9:00pm",
      "reminder": true,
      "id": 2
    }
  ]
}